\babel@toc {russian}{}
\contentsline {section}{\numberline {1}\IeC {\CYRV }\IeC {\cyrs }\IeC {\cyrt }\IeC {\cyru }\IeC {\cyrp }\IeC {\cyrl }\IeC {\cyre }\IeC {\cyrn }\IeC {\cyri }\IeC {\cyre }}{2}
\contentsline {subsection}{\numberline {1.1}\IeC {\CYRC }\IeC {\cyre }\IeC {\cyrl }\IeC {\cyri }}{2}
\contentsline {subsection}{\numberline {1.2}\IeC {\CYRZ }\IeC {\cyra }\IeC {\cyrd }\IeC {\cyra }\IeC {\cyrch }\IeC {\cyri }}{2}
\contentsline {subsection}{\numberline {1.3}\IeC {\CYRO }\IeC {\cyrp }\IeC {\cyrr }\IeC {\cyre }\IeC {\cyrd }\IeC {\cyre }\IeC {\cyrl }\IeC {\cyre }\IeC {\cyrn }\IeC {\cyri }\IeC {\cyrya }}{3}
\contentsline {subsection}{\numberline {1.4}\IeC {\CYRM }\IeC {\cyra }\IeC {\cyrt }\IeC {\cyre }\IeC {\cyrr }\IeC {\cyri }\IeC {\cyra }\IeC {\cyrl }\IeC {\cyrery } \IeC {\cyri } \IeC {\cyro }\IeC {\cyrb }\IeC {\cyro }\IeC {\cyrr }\IeC {\cyru }\IeC {\cyrd }\IeC {\cyro }\IeC {\cyrv }\IeC {\cyra }\IeC {\cyrn }\IeC {\cyri }\IeC {\cyre }.}{3}
\contentsline {section}{\numberline {2}\IeC {\CYRO }\IeC {\cyrs }\IeC {\cyrn }\IeC {\cyro }\IeC {\cyrv }\IeC {\cyrn }\IeC {\cyra }\IeC {\cyrya } \IeC {\cyrch }\IeC {\cyra }\IeC {\cyrs }\IeC {\cyrt }\IeC {\cyrsftsn }}{3}
\contentsline {subsection}{\numberline {2.1}\IeC {\CYRD }\IeC {\cyro }\IeC {\cyrr }\IeC {\cyro }\IeC {\cyrzh }\IeC {\cyrn }\IeC {\cyra }\IeC {\cyrya } \IeC {\cyrk }\IeC {\cyra }\IeC {\cyrr }\IeC {\cyrt }\IeC {\cyra } \IeC {\cyrr }\IeC {\cyra }\IeC {\cyrb }\IeC {\cyro }\IeC {\cyrt }\IeC {\cyrery } \IeC {\cyrn }\IeC {\cyra }\IeC {\cyrd } \IeC {\cyrp }\IeC {\cyrr }\IeC {\cyro }\IeC {\cyre }\IeC {\cyrk }\IeC {\cyrt }\IeC {\cyro }\IeC {\cyrm }.}{3}
\contentsline {subsection}{\numberline {2.2}\IeC {\CYRR }\IeC {\cyra }\IeC {\cyrb }\IeC {\cyro }\IeC {\cyrt }\IeC {\cyra } \IeC {\cyrn }\IeC {\cyra }\IeC {\cyrd } \IeC {\cyrp }\IeC {\cyrr }\IeC {\cyro }\IeC {\cyrg }\IeC {\cyrr }\IeC {\cyra }\IeC {\cyrm }\IeC {\cyrm }\IeC {\cyrn }\IeC {\cyrery }\IeC {\cyrm } \IeC {\cyrk }\IeC {\cyro }\IeC {\cyrd }\IeC {\cyro }\IeC {\cyrm }}{3}
\contentsline {section}{\numberline {3}\IeC {\CYRV }\IeC {\cyrery }\IeC {\cyrv }\IeC {\cyro }\IeC {\cyrd }}{3}
